module gitlab.com/m0sh1x2/reddit-saved-posts-exporter

go 1.18

require (
	github.com/spf13/viper v1.10.1
	github.com/vartanbeno/go-reddit/v2 v2.0.1
)

require (
	github.com/fsnotify/fsnotify v1.5.1 // indirect
	github.com/golang/protobuf v1.5.2 // indirect
	github.com/google/go-querystring v1.0.0 // indirect
	github.com/hashicorp/hcl v1.0.0 // indirect
	github.com/magiconair/properties v1.8.5 // indirect
	github.com/mitchellh/mapstructure v1.4.3 // indirect
	github.com/pelletier/go-toml v1.9.4 // indirect
	github.com/spf13/afero v1.6.0 // indirect
	github.com/spf13/cast v1.4.1 // indirect
	github.com/spf13/jwalterweatherman v1.1.0 // indirect
	github.com/spf13/pflag v1.0.5 // indirect
	github.com/subosito/gotenv v1.2.0 // indirect
	golang.org/x/net v0.0.0-20210813160813-60bc85c4be6d // indirect
	golang.org/x/oauth2 v0.0.0-20211104180415-d3ed0bb246c8 // indirect
	golang.org/x/sys v0.0.0-20211210111614-af8b64212486 // indirect
	golang.org/x/text v0.3.7 // indirect
	google.golang.org/appengine v1.6.7 // indirect
	google.golang.org/protobuf v1.27.1 // indirect
	gopkg.in/ini.v1 v1.66.2 // indirect
	gopkg.in/yaml.v2 v2.4.0 // indirect
)
